<svg width="30" height="30" viewBox="0 0 30 30" fill="none" xmlns="http://www.w3.org/2000/svg">
<g clip-path="url(#clip0)">
<path d="M22.9846 19.9873C21.907 17.1538 20.5338 14.7713 19.1973 13.4081V11.7123C19.1973 9.36703 21.4343 6.37143 21.4568 6.34155C21.5703 6.19108 21.5755 5.98501 21.4697 5.82908C20.4549 4.33349 20.6037 1.90331 20.6053 1.8793C20.6189 1.67916 20.4955 1.49505 20.3052 1.43165L18.9948 0.994858L18.129 0.128968C17.9571 -0.0429892 17.6782 -0.0429892 17.5063 0.128968L15.6277 2.00764C15.4557 2.17959 15.4557 2.4584 15.6277 2.6303L15.6868 2.68942C15.4698 2.77331 15.2384 2.81799 14.9997 2.81799C14.7609 2.81799 14.5295 2.77331 14.3126 2.68942L14.3717 2.6303C14.5436 2.45834 14.5436 2.17953 14.3717 2.00764L12.493 0.128968C12.321 -0.0429892 12.0422 -0.0429892 11.8703 0.128968L11.0045 0.994799L9.69408 1.43159C9.50398 1.49494 9.38069 1.67899 9.39402 1.87895C9.3956 1.90331 9.54449 4.33355 8.52966 5.82908C8.42386 5.98496 8.42909 6.19102 8.54245 6.34149C8.56506 6.37143 10.802 9.36703 10.802 11.7123V13.4081C9.46547 14.7713 8.0924 17.1538 7.01474 19.9873C5.82255 23.122 5.16602 26.3547 5.16602 29.09C5.16602 29.3332 5.36316 29.5303 5.60633 29.5303C5.97144 29.5303 6.12919 29.6093 6.34752 29.7186C6.59797 29.844 6.90971 30 7.48288 30C8.05629 30 8.36809 29.844 8.61866 29.7187C8.83717 29.6093 8.99504 29.5303 9.36038 29.5303C9.72602 29.5303 9.88394 29.6093 10.1026 29.7187C10.3533 29.844 10.6652 30 11.2388 30C11.8123 30 12.1243 29.844 12.3749 29.7187C12.5935 29.6093 12.7515 29.5303 13.1171 29.5303C13.4827 29.5303 13.6407 29.6093 13.8593 29.7187C14.11 29.844 14.4219 30 14.9954 30C15.5689 30 15.8808 29.844 16.1314 29.7187C16.35 29.6093 16.5078 29.5303 16.8733 29.5303C17.2388 29.5303 17.3968 29.6093 17.6154 29.7187C17.866 29.844 18.1779 30 18.7514 30C19.325 30 19.6369 29.844 19.8876 29.7187C20.1063 29.6093 20.2643 29.5303 20.63 29.5303C20.9966 29.5303 21.155 29.6094 21.3741 29.7188C21.625 29.8441 21.9374 30 22.5116 30C23.0858 30 23.3981 29.8441 23.6491 29.7188C23.8682 29.6093 24.0266 29.5303 24.3932 29.5303C24.6364 29.5303 24.8335 29.3332 24.8335 29.09C24.8333 26.3547 24.1768 23.122 22.9846 19.9873ZM17.8177 1.06296L18.2026 1.44785L17.2606 3.01783L16.5617 2.31897L17.8177 1.06296ZM12.1817 1.06296L13.4376 2.31897L12.7388 3.01783L11.7968 1.44785L12.1817 1.06296ZM9.42431 6.05858C10.2179 4.68568 10.2917 2.90447 10.284 2.16316L11.0465 1.90901L12.2738 3.95447C12.3435 4.07071 12.463 4.14838 12.5976 4.16494C12.6155 4.16717 12.6335 4.16828 12.6513 4.16828C12.7674 4.16828 12.8796 4.12237 12.9627 4.0393L13.6509 3.35106C14.0616 3.57903 14.5212 3.69862 14.9997 3.69862C15.4781 3.69862 15.9377 3.57903 16.3484 3.35106L17.0367 4.03936C17.1198 4.12243 17.2319 4.16834 17.348 4.16834C17.3659 4.16834 17.3839 4.16723 17.4018 4.16505C17.5364 4.1485 17.6559 4.07083 17.7256 3.95458L18.9529 1.90912L19.7154 2.16327C19.7077 2.90458 19.7815 4.6858 20.5751 6.05869C20.0455 6.81339 18.5314 9.13595 18.3375 11.2721H11.6619C11.468 9.13584 9.95392 6.81333 9.42431 6.05858ZM11.6827 13.1507V12.1526H18.3167V13.1507H11.6827ZM11.4243 14.0313H12.5948C12.0504 14.6601 11.5548 15.6017 11.283 16.7796C11.2283 17.0166 11.376 17.253 11.613 17.3077C11.6464 17.3154 11.6797 17.319 11.7124 17.319C11.9128 17.319 12.094 17.1812 12.141 16.9776C12.4677 15.5621 13.1396 14.6464 13.6239 14.2529C13.4551 14.5801 13.3027 14.9795 13.1674 15.4509C12.8312 16.6225 12.6807 17.9557 12.6807 18.7573C12.6807 19.0005 12.8778 19.1976 13.121 19.1976C13.3642 19.1976 13.5613 19.0005 13.5613 18.7573C13.5613 18.0414 13.703 16.7773 14.0139 15.6939C14.3435 14.5453 14.7465 14.0313 14.9997 14.0313H18.5751C20.801 16.306 23.2133 21.7994 23.812 26.835C23.5773 26.8918 23.4064 26.9769 23.2555 27.0522C23.0364 27.1616 22.878 27.2406 22.5114 27.2406C22.1448 27.2406 21.9865 27.1616 21.7673 27.0522C21.5164 26.9269 21.2041 26.771 20.6299 26.771C20.0563 26.771 19.7444 26.927 19.4936 27.0523C19.2749 27.1616 19.117 27.2406 18.7513 27.2406C18.3857 27.2406 18.2278 27.1616 18.0092 27.0523C17.7586 26.927 17.4466 26.771 16.8732 26.771C16.2997 26.771 15.9879 26.927 15.7373 27.0523C15.5187 27.1616 15.3608 27.2406 14.9953 27.2406C14.6297 27.2406 14.4718 27.1616 14.2531 27.0523C14.0025 26.927 13.6905 26.771 13.117 26.771C12.5434 26.771 12.2315 26.927 11.9809 27.0523C11.7623 27.1616 11.6043 27.2406 11.2386 27.2406C10.873 27.2406 10.7151 27.1616 10.4964 27.0523C10.2458 26.927 9.93384 26.771 9.36026 26.771C8.78686 26.771 8.47506 26.927 8.22449 27.0523C8.00598 27.1616 7.84811 27.2406 7.48277 27.2406C7.11766 27.2406 6.95991 27.1617 6.74157 27.0524C6.59122 26.9771 6.42085 26.892 6.18684 26.8351C6.78572 21.7996 9.19846 16.3059 11.4243 14.0313ZM23.2555 28.9308C23.0364 29.0403 22.8781 29.1193 22.5114 29.1193C22.1448 29.1193 21.9865 29.0402 21.7673 28.9308C21.5164 28.8056 21.2041 28.6496 20.6299 28.6496C20.0563 28.6496 19.7444 28.8056 19.4936 28.931C19.2749 29.0403 19.117 29.1193 18.7513 29.1193C18.3857 29.1193 18.2278 29.0403 18.0092 28.931C17.7586 28.8056 17.4466 28.6496 16.8732 28.6496C16.2997 28.6496 15.9879 28.8056 15.7373 28.931C15.5187 29.0403 15.3608 29.1193 14.9953 29.1193C14.6297 29.1193 14.4718 29.0403 14.2531 28.931C14.0025 28.8056 13.6905 28.6496 13.117 28.6496C12.5434 28.6496 12.2315 28.8056 11.9809 28.931C11.7623 29.0403 11.6043 29.1193 11.2386 29.1193C10.873 29.1193 10.7151 29.0403 10.4964 28.931C10.2458 28.8056 9.93384 28.6496 9.36026 28.6496C8.78686 28.6496 8.47506 28.8056 8.22449 28.931C8.00598 29.0403 7.84811 29.1193 7.48277 29.1193C7.11766 29.1193 6.95991 29.0403 6.74157 28.931C6.56521 28.8427 6.35844 28.7392 6.0514 28.6857C6.05897 28.3702 6.07564 28.0506 6.10001 27.7283C6.18449 27.7592 6.26228 27.7972 6.34741 27.8398C6.59791 27.9652 6.9096 28.1212 7.48277 28.1212C8.05617 28.1212 8.36797 27.9652 8.61854 27.8399C8.83705 27.7306 8.99492 27.6515 9.36026 27.6515C9.7259 27.6515 9.88382 27.7306 10.1025 27.8399C10.3531 27.9652 10.6651 28.1212 11.2386 28.1212C11.8122 28.1212 12.1241 27.9652 12.3748 27.8399C12.5934 27.7306 12.7514 27.6515 13.117 27.6515C13.4826 27.6515 13.6406 27.7306 13.8592 27.8399C14.1098 27.9652 14.4218 28.1212 14.9953 28.1212C15.5688 28.1212 15.8807 27.9652 16.1313 27.8399C16.3499 27.7306 16.5077 27.6515 16.8732 27.6515C17.2387 27.6515 17.3967 27.7306 17.6153 27.8399C17.8659 27.9652 18.1778 28.1212 18.7513 28.1212C19.3248 28.1212 19.6368 27.9652 19.8875 27.8399C20.1062 27.7306 20.2642 27.6515 20.6299 27.6515C20.9965 27.6515 21.1548 27.7306 21.374 27.84C21.6249 27.9653 21.9372 28.1212 22.5115 28.1212C23.0857 28.1212 23.398 27.9653 23.649 27.84C23.7351 27.797 23.8137 27.7586 23.8995 27.7276C23.9239 28.0503 23.9398 28.3699 23.9474 28.686C23.6398 28.7395 23.4323 28.8427 23.2555 28.9308Z" fill="black"/>
</g>
<defs>
<clipPath id="clip0">
<rect width="30" height="30" fill="white"/>
</clipPath>
</defs>
</svg>
