<svg width="30" height="30" viewBox="0 0 30 30" fill="none" xmlns="http://www.w3.org/2000/svg">
<path d="M2.7303 2.50414C3.92257 1.20462 5.62113 0.5 7.68256 0.5C12.0559 0.5 14.32 3.71233 14.32 6.90626C14.32 8.59083 13.7246 10.1514 12.6575 11.3088L12.6575 11.3088C11.4597 12.6082 9.75291 13.3128 7.68258 13.3127H7.68256C3.33187 13.3127 1.07617 10.1027 1.07617 6.90626C1.07617 5.22211 1.66846 3.66164 2.7303 2.50414ZM2.7303 2.50414L2.36187 2.16611M2.7303 2.50414L2.36187 2.16611M2.36187 2.16611C3.66199 0.749046 5.50176 0 7.68256 0C12.3686 0 14.82 3.47428 14.82 6.90626C14.82 8.7088 14.1824 10.3925 13.0252 11.6477L7.68256 13.8127C3.01717 13.8127 0.576172 10.3386 0.576172 6.90626C0.576172 5.10485 1.21023 3.42151 2.36187 2.16611ZM11.9195 6.9087C11.9195 5.91498 11.5942 4.8685 10.8904 4.06311C10.1769 3.24667 9.10245 2.71118 7.68256 2.71118C6.24784 2.71118 5.16001 3.21844 4.43496 4.01986C3.71833 4.81198 3.39243 5.85087 3.39243 6.8622C3.39243 7.85922 3.72733 8.90723 4.44877 9.71221C5.17921 10.5272 6.27622 11.0593 7.7242 11.0593C8.99549 11.0593 10.1013 10.6276 10.8732 9.76748C11.556 9.00748 11.9195 7.98815 11.9195 6.9087Z" fill="black" stroke="white"/>
<path d="M24.734 3.16418L24.7358 3.16414L27.2623 3.10963C27.2831 3.10973 27.3016 3.11054 27.318 3.1118L6.37184 26.5404C6.37176 26.5405 6.37168 26.5406 6.3716 26.5407C6.28996 26.6316 6.13953 26.7389 5.94939 26.8239C5.75904 26.9089 5.57877 26.9494 5.45675 26.9494H2.79543L23.8082 3.58686C23.8082 3.58686 23.8082 3.58685 23.8082 3.58684C23.8912 3.49457 24.0437 3.38532 24.2356 3.29767C24.4277 3.21 24.61 3.16642 24.734 3.16418ZM27.366 3.0308C27.366 3.03081 27.366 3.03107 27.3659 3.03161L27.366 3.0308Z" fill="black" stroke="white"/>
<path d="M17.2022 18.5752L17.5706 18.9132C16.5308 20.0464 15.9502 21.5752 15.9502 23.225C15.9502 26.3558 18.1595 29.5 22.4214 29.5C24.4506 29.5 26.1218 28.8094 27.295 27.5371L17.2022 18.5752ZM17.2022 18.5752L17.5706 18.9132M17.2022 18.5752L17.5706 18.9132M17.5706 18.9132C18.7383 17.6407 20.4021 16.95 22.4213 16.95M17.5706 18.9132L22.4213 16.95M22.4213 16.95C26.7055 16.95 28.9232 20.0964 28.9233 23.225C28.9233 24.8749 28.3402 26.4035 27.2951 27.5371L22.4213 16.95ZM25.6046 26.0955L25.6047 26.0954C26.2862 25.3329 26.6492 24.3103 26.6492 23.2275C26.6492 22.2316 26.3251 21.1824 25.6233 20.3747C24.9116 19.5556 23.8392 19.0178 22.4214 19.0178C21.1528 19.0178 20.05 19.4511 19.2795 20.3134C18.5974 21.076 18.2345 22.0985 18.2345 23.1815C18.2345 24.1772 18.5587 25.2263 19.2607 26.034C19.9725 26.853 21.0449 27.3909 22.4627 27.3909C23.731 27.3909 24.8339 26.9576 25.6046 26.0955Z" fill="black" stroke="white"/>
</svg>
